<?xml version="1.0" encoding="utf-8"?>
<!-- Generator: Adobe Illustrator 21.0.0, SVG Export Plug-In . SVG Version: 6.00 Build 0)  -->
<svg version="1.1" id="Calque_1" xmlns="http://www.w3.org/2000/svg" xmlns:xlink="http://www.w3.org/1999/xlink" x="0px" y="0px"
	 viewBox="0 0 595.3 841.9" style="enable-background:new 0 0 595.3 841.9;" xml:space="preserve">
<style type="text/css">
	.st0{fill:none;stroke:#86B218;stroke-width:13.0977;stroke-linecap:round;stroke-linejoin:round;stroke-miterlimit:10;}
	.st1{fill:none;stroke:#86B218;stroke-width:8.7318;stroke-linecap:round;stroke-linejoin:round;stroke-miterlimit:10;}
	.st2{fill:#40A629;stroke:#86B218;stroke-width:8.7318;stroke-linecap:round;stroke-linejoin:round;stroke-miterlimit:10;}
</style>
<path class="st0" d="M226.1,207c11.1-1.8,70.9-6.9,92.3-8.4c15.5-1.1,55-1.8,96.1,23.9c41,25.8,52.1,54.2,52.1,54.2
	c19.5,32.1,17.8,64.2,5.2,120.5c-12.6,56.3-64.2,96.8-67.3,110.5c-3.2,13.7,0,46.8,7.9,71c7.9,24.2,33.1,65,33.1,65h-187
	c-0.3-7.6-3.7-18.4-12.4-30.3c-8.7-11.8-16.6-11.1-14.5-35c1.9-21.1-39.7-13.7-64.2-14.7c-24.5-1.1-28.9-24.5-24.5-38.9
	c4.5-14.5-2.1-26.3-7.4-32.9c-5.3-6.6,3.4-16.6,3.4-16.6c-11.8-5.8-7.4-13.7-3.4-20.5c3.9-6.8-8.2-8.4-12.9-11.3
	c-4.7-2.9-13.7-10.5-5.5-21.6c8.2-11.1,31.3-35.5,37.1-45c5.8-9.5-2.6-21.8,0-32.4c2.6-10.5,18.7-50.2,19.5-55.2
	c0.8-5,1.2-11,1.8-20.9c0.6-9.9,10.2-29.7,13.6-40c3.4-10.3,3.9-7.4,10.6-13.9C199.8,214.6,207.6,210,226.1,207"/>
<path class="st1" d="M426.4,348.7c0,0,0,0.6,0,1.8c0,1.2,0,3-0.2,5.3c-0.3,4.6-1,11.5-3.3,19.9c-0.3,1-0.6,2.1-0.9,3.2
	c-0.4,1.1-0.7,2.2-1.1,3.3c-0.4,1.2-0.8,2.3-1.3,3.5c-0.5,1.2-0.9,2.4-1.5,3.6c-2,4.8-4.7,9.9-8,15c-6.6,10.2-16,20.6-28.4,29
	c-6.2,4.2-13.2,7.9-20.7,10.8c-7.5,2.9-15.7,4.9-24.3,6c-1.1,0.2-2.1,0.2-3.2,0.3c-1.1,0.1-2.2,0.2-3.3,0.3c-1.1,0-2.2,0.1-3.3,0.1
	l-1.6,0c-0.6,0-1.1,0-1.7,0c-1.1,0-2.2,0-3.3-0.1c-1.1,0-2.2-0.1-3.3-0.2c-2.2-0.1-4.5-0.4-6.7-0.7c-4.5-0.7-9-1.5-13.4-2.8
	c-2.2-0.6-4.4-1.4-6.6-2.1c-1.1-0.4-2.2-0.8-3.3-1.3l-1.6-0.6l-1.6-0.7c-8.6-3.8-16.9-8.8-24.3-15c-3.8-3.1-7.2-6.5-10.6-10.1
	c-3.3-3.6-6.3-7.6-9.1-11.6c-2.8-4.1-5.2-8.5-7.4-13c-2.2-4.5-3.9-9.2-5.5-14c-1.5-4.8-2.6-9.7-3.4-14.7l-0.5-3.8
	c-0.2-1.2-0.2-2.5-0.3-3.8c-0.1-1.3-0.2-2.5-0.2-3.8l-0.1-3.8c0.1-2.5,0-4.9,0.3-7.5l0.1-1.9c0-0.6,0.1-1.3,0.2-1.9l0.5-3.8
	c0.8-5,1.8-9.9,3.2-14.8c1.5-4.8,3.2-9.6,5.3-14.1c2.2-4.5,4.5-8.9,7.3-13.1c2.8-4.1,5.8-8.1,9.1-11.8c3.3-3.7,6.8-7.2,10.6-10.3
	c7.5-6.3,15.7-11.5,24.4-15.4l1.6-0.7l1.7-0.7c1.1-0.4,2.2-0.9,3.3-1.3c2.2-0.8,4.4-1.6,6.7-2.2c4.5-1.4,9-2.3,13.6-3
	c2.3-0.3,4.5-0.6,6.8-0.8c1.1-0.1,2.3-0.2,3.4-0.3c1.1,0,2.3-0.1,3.4-0.1l0.8,0l0.4,0l0.2,0c0.1,0,0.3,0,0.3,0l1.6,0
	c1.1,0,2.2,0,3.3,0.1c1.1,0.1,2.2,0.2,3.3,0.2c1.1,0.1,2.2,0.1,3.3,0.3c8.7,1,17.1,2.9,24.8,5.8c7.7,2.9,14.9,6.6,21.3,10.8
	c12.8,8.5,22.5,19,29.4,29.4c3.5,5.2,6.2,10.4,8.4,15.3c0.6,1.2,1,2.5,1.5,3.7c0.5,1.2,1,2.4,1.4,3.6c0.4,1.2,0.8,2.3,1.2,3.4
	c0.3,1.1,0.7,2.2,1,3.3c2.5,8.6,3.3,15.7,3.6,20.5c0.2,2.4,0.2,4.2,0.3,5.5c0,1.2,0.1,1.9,0.1,1.9H426.4z M423,348.7
	c0,0,0-0.6,0-1.8c0-1.2,0-2.9-0.2-5.1c-0.3-4.5-1-11.1-3.2-19.2c-0.3-1-0.6-2.1-0.9-3.1c-0.4-1.1-0.7-2.1-1.1-3.2
	c-0.3-1.1-0.8-2.2-1.2-3.4c-0.4-1.1-0.9-2.3-1.4-3.5c-2-4.7-4.6-9.6-7.7-14.5c-6.4-9.8-15.4-19.9-27.5-28c-6-4-12.7-7.6-20-10.4
	c-7.3-2.8-15.2-4.7-23.5-5.8c-1-0.2-2.1-0.2-3.1-0.3c-1-0.1-2.1-0.2-3.1-0.2c-1.1,0-2.2-0.1-3.3-0.1l-1.6,0c-0.1,0-0.1,0-0.1,0
	l-0.2,0l-0.4,0l-0.8,0c-1.1,0-2.1,0-3.2,0.1c-1.1,0-2.1,0.1-3.2,0.2c-2.2,0.1-4.3,0.4-6.5,0.7c-4.3,0.7-8.7,1.5-13,2.7
	c-2.2,0.6-4.3,1.3-6.4,2c-1.1,0.4-2.1,0.8-3.2,1.2l-1.6,0.6l-1.6,0.7c-8.3,3.6-16.3,8.5-23.5,14.5c-3.6,3-7,6.3-10.2,9.8
	c-3.2,3.5-6.1,7.3-8.8,11.3c-2.7,4-5,8.2-7.2,12.5c-2.1,4.3-3.8,8.9-5.3,13.5c-1.5,4.6-2.5,9.4-3.3,14.2l-0.5,3.6
	c-0.1,0.6-0.1,1.2-0.2,1.8l-0.1,1.8c-0.3,2.4-0.2,4.9-0.3,7.4l0.1,3.6c0,1.2,0.1,2.4,0.2,3.7c0.1,1.2,0.1,2.4,0.3,3.7l0.4,3.6
	c0.7,4.8,1.7,9.6,3.1,14.3c1.4,4.7,3.1,9.2,5.2,13.6c2.1,4.4,4.4,8.7,7.1,12.7c2.7,4,5.6,7.9,8.8,11.4c3.2,3.5,6.6,6.9,10.2,10
	c7.2,6.1,15.2,11.2,23.6,14.9l1.6,0.7l1.6,0.6c1.1,0.4,2.1,0.9,3.2,1.3c2.2,0.7,4.3,1.5,6.5,2.1c4.3,1.3,8.7,2.2,13.1,2.9
	c2.2,0.3,4.4,0.6,6.6,0.8c1.1,0.1,2.2,0.2,3.3,0.2c1.1,0,2.2,0.1,3.3,0.1c0.5,0,1.1,0,1.6,0l1.6,0c1.1,0,2.2,0,3.2-0.1
	c1.1-0.1,2.1-0.1,3.2-0.2c1.1-0.1,2.1-0.1,3.2-0.3c8.4-0.9,16.5-2.8,24-5.6c7.5-2.8,14.4-6.4,20.6-10.4
	c12.4-8.2,21.8-18.4,28.5-28.4c3.3-5,6-10,8.1-14.8c0.6-1.2,1-2.4,1.5-3.5c0.5-1.2,0.9-2.3,1.3-3.4c0.4-1.1,0.8-2.2,1.1-3.3
	c0.3-1.1,0.6-2.2,0.9-3.2c2.4-8.4,3.2-15.2,3.5-19.8c0.2-2.3,0.2-4.1,0.3-5.3c0-1.2,0.1-1.8,0.1-1.8H423z"/>
<path class="st1" d="M429.1,352c0,0,0,0.5-0.1,1.4c0,0.2,0,0.5-0.1,0.8c0,0.3-0.1,0.7-0.2,1.1c-0.1,0.8-0.3,1.8-0.6,2.7
	c-0.1,0.5-0.3,1-0.5,1.5c-0.2,0.5-0.4,1.1-0.7,1.6c-0.1,0.3-0.2,0.6-0.4,0.9c-0.1,0.3-0.3,0.6-0.5,0.9c-0.3,0.6-0.6,1.2-1,1.8
	c-1.5,2.4-3.5,4.9-6,7.3c-2.5,2.4-5.5,4.7-9,6.9c-3.5,2.2-7.3,4.2-11.6,6.1c-8.5,3.7-18.5,6.8-29.5,9c-11,2.2-23.2,3.6-36,4
	c-3.2,0.1-6.5,0.1-9.8,0.1c-1.6,0-3.3,0-4.9-0.1c-1.7-0.1-3.4-0.1-5.1-0.2c-6.7-0.4-13.6-1-20.5-2c-13.8-2.1-28.1-5.5-41.7-11.5
	c-3.4-1.5-6.7-3.3-9.9-5.2c-3.2-2-6.3-4.1-9.2-6.7c-2.8-2.6-5.4-5.5-7.4-8.9l-0.7-1.3c-0.1-0.2-0.2-0.4-0.3-0.7l-0.3-0.7l-0.6-1.4
	c-0.2-0.5-0.3-1-0.4-1.4c-0.3-0.9-0.5-2-0.6-2.9c-0.1-0.5-0.1-1-0.1-1.5l0-0.8l0-0.4l0-0.2c0-0.1,0,0,0-0.3l0.1-1.4
	c0-0.5,0-0.9,0.2-1.4l0.3-1.5c0-0.3,0.1-0.5,0.2-0.7l0.2-0.7c0.2-0.5,0.3-1,0.5-1.4l0.6-1.4l0.3-0.7c0.1-0.2,0.2-0.4,0.3-0.7
	l0.7-1.3c2-3.4,4.6-6.3,7.5-8.8c2.9-2.5,6-4.6,9.2-6.5c3.2-1.9,6.5-3.6,9.9-5c13.6-5.8,27.8-9,41.6-10.9c13.8-1.8,27.3-2.2,40.1-1.7
	c12.7,0.6,24.7,2.1,35.6,4.4c10.9,2.4,20.6,5.5,28.8,9.3c4.1,1.9,7.8,3.9,11.1,6c3.3,2.1,6.1,4.4,8.4,6.7c2.3,2.3,4.1,4.6,5.4,6.7
	c0.3,0.5,0.6,1.1,0.9,1.6c0.1,0.3,0.3,0.5,0.4,0.8c0.1,0.3,0.2,0.5,0.3,0.8c0.2,0.5,0.4,1,0.6,1.4c0.1,0.5,0.3,0.9,0.4,1.3
	c0.3,0.8,0.3,1.6,0.5,2.2c0,0.3,0.1,0.6,0.1,0.9c0,0.3,0,0.5,0,0.7c0,0.9,0.1,1.4,0.1,1.4L429.1,352z M425.7,351.8
	c0,0,0-0.5-0.1-1.4c0-0.2,0-0.5,0-0.7c0-0.3-0.1-0.6-0.1-0.9c-0.1-0.6-0.2-1.4-0.5-2.2c-0.1-0.4-0.3-0.9-0.4-1.3
	c-0.2-0.4-0.4-0.9-0.6-1.4c-0.1-0.2-0.2-0.5-0.3-0.8c-0.1-0.2-0.3-0.5-0.4-0.8c-0.3-0.5-0.5-1-0.9-1.6c-1.3-2.1-3.2-4.4-5.5-6.6
	c-2.3-2.2-5.2-4.4-8.5-6.5c-3.3-2.1-7-4-11.1-5.8c-8.2-3.6-18-6.6-28.8-8.8c-10.8-2.2-22.8-3.5-35.4-3.9
	c-12.7-0.4-26.1,0.2-39.7,2.3c-13.6,2-27.6,5.4-40.8,11.3c-3.3,1.4-6.5,3.1-9.5,5c-3.1,1.9-6,3.9-8.7,6.3c-2.6,2.4-5,5.1-6.7,8.1
	l-0.6,1.1c-0.1,0.2-0.2,0.4-0.3,0.6l-0.2,0.6l-0.5,1.2c-0.1,0.4-0.2,0.8-0.4,1.2c-0.1,0.4-0.3,0.8-0.3,1.2l-0.2,1.2
	c-0.1,0.4-0.1,0.8-0.1,1.3l-0.1,1.4c0-0.1,0,0.1,0,0.1l0,0.2l0,0.3l0,0.6c0,0.4,0,0.8,0.1,1.3c0.2,0.8,0.3,1.7,0.6,2.5
	c0.1,0.4,0.2,0.8,0.4,1.2l0.5,1.2l0.2,0.6c0.1,0.2,0.2,0.4,0.3,0.6l0.6,1.1c1.7,3,4.1,5.6,6.8,7.9c2.7,2.3,5.6,4.4,8.7,6.2
	c3.1,1.8,6.3,3.4,9.6,4.8c13.1,5.6,27.1,8.8,40.7,10.6c6.8,0.9,13.5,1.5,20.1,1.7c1.6,0.1,3.3,0.1,4.9,0.1c1.6,0,3.3,0,4.9,0
	c3.2,0,6.4-0.1,9.5-0.2c12.6-0.5,24.4-2.1,35-4.4c10.7-2.3,20.2-5.4,28.2-9c4-1.8,7.6-3.8,10.7-5.8c3.1-2,5.8-4.2,7.9-6.2
	c2.1-2.1,3.7-4.2,4.9-6.1c0.3-0.5,0.5-0.9,0.7-1.4c0.1-0.2,0.2-0.4,0.3-0.7c0.1-0.2,0.2-0.4,0.3-0.6c0.2-0.4,0.3-0.8,0.5-1.2
	c0.1-0.4,0.2-0.8,0.3-1.1c0.2-0.7,0.3-1.3,0.4-1.7c0-0.3,0.1-0.4,0.1-0.7c0-0.3,0-0.5,0-0.8c0-0.9,0.1-1.4,0.1-1.4L425.7,351.8z"/>
<path class="st1" d="M285.6,257.7c0.6,0,1.3,0,2,0c2.8,0.1,5.9,0.7,9.2,1.7c6.6,2,13.9,6,21.2,11.5c7.3,5.6,14.8,12.7,22,21.3
	c7.2,8.5,14.3,18.4,20.7,29.4c1.6,2.7,3.2,5.6,4.8,8.5c0.7,1.4,1.5,2.9,2.3,4.3c0.7,1.5,1.5,3,2.2,4.5c2.9,6,5.6,12.3,8,18.8
	c4.8,13,8.6,27.1,9.8,41.8c0.3,3.7,0.3,7.4,0.2,11.1c-0.2,3.7-0.6,7.5-1.5,11.2c-0.9,3.7-2.2,7.3-4.3,10.7c-0.6,0.8-1,1.7-1.7,2.4
	l-0.9,1.1c-0.3,0.4-0.7,0.7-1,1.1c-0.7,0.7-1.5,1.3-2.3,1.9c-0.4,0.3-0.8,0.6-1.2,0.8l-0.6,0.4l-0.3,0.2l-0.2,0.1
	c-0.1,0.1,0,0-0.2,0.1l-1.2,0.6c-0.4,0.2-0.8,0.4-1.3,0.6c-1,0.3-2,0.7-2.9,0.9c-0.5,0.1-1,0.2-1.5,0.3l-1.5,0.2
	c-1,0.1-2,0.1-2.9,0.1c-3.9-0.1-7.7-0.9-11.2-2.2c-3.6-1.3-6.9-2.9-10.1-4.8c-3.2-1.9-6.3-3.9-9.1-6.2c-11.6-9-21.2-19.8-29.4-30.9
	c-8.2-11.1-15-22.7-20.6-34c-5.6-11.4-10-22.5-13.1-33.1c-3.1-10.6-5-20.6-5.6-29.5c-0.6-8.9,0-16.9,1.8-23c0.9-3.1,2-5.8,3.3-7.9
	c0.3-0.5,0.7-1,1-1.5c0.2-0.2,0.3-0.5,0.5-0.7c0.2-0.2,0.3-0.4,0.5-0.6c0.3-0.4,0.6-0.8,1-1.2c0.3-0.3,0.7-0.7,1-1
	c0.6-0.6,1.2-1.1,1.7-1.5c0.5-0.4,1-0.7,1.4-0.9c0.8-0.5,1.1-0.7,1.1-0.7L285.6,257.7z M268.7,270.9c-0.2,0.2-0.3,0.5-0.5,0.7
	c-1.2,2.2-2.3,4.8-3.2,7.9c-1.7,6.2-2.3,14-1.5,22.9c0.8,8.9,2.8,18.8,6,29.3c3.3,10.5,7.8,21.5,13.5,32.7
	c5.7,11.2,12.7,22.5,21,33.4c8.3,10.9,17.9,21.4,29.4,29.9c2.8,2.1,5.8,4.1,8.9,5.9c3.1,1.8,6.3,3.3,9.7,4.4
	c6.7,2.3,14,2.9,20.1-0.5c-0.1,0.1,0,0,0,0l0.1-0.1l0.3-0.2l0.5-0.3c0.3-0.2,0.7-0.4,1-0.7c0.6-0.5,1.3-1,1.9-1.7
	c0.3-0.3,0.6-0.6,0.9-0.9l0.8-1c0.6-0.6,1-1.4,1.4-2.1c1.8-2.9,3-6.2,3.7-9.7c0.8-3.4,1.1-7,1.3-10.5c0.1-3.5,0-7.1-0.3-10.6
	c-1.3-14.1-5.2-27.8-10.1-40.4c-2.5-6.3-5.2-12.5-8.1-18.3c-0.7-1.5-1.5-2.9-2.2-4.3c-0.7-1.4-1.6-2.9-2.3-4.3
	c-1.5-2.8-3.1-5.5-4.8-8.2c-6.5-10.6-13.5-20.2-20.6-28.3c-7.1-8.2-14.4-14.9-21.4-20.1c-7-5.2-13.7-8.6-19.4-10.3
	c-2.8-0.8-5.4-1.2-7.6-1.3c-0.5,0-1.1,0-1.6,0c-0.2,0-0.5,0-0.7,0c-0.2,0-0.5,0.1-0.7,0.1c-0.4,0.1-0.9,0.1-1.3,0.2
	c-0.4,0.1-0.8,0.2-1.1,0.3c-0.7,0.1-1.2,0.4-1.7,0.5c-0.1,0-0.2,0.1-0.3,0.1c-0.1,0-0.2,0.1-0.3,0.1c-0.2,0.1-0.5,0.2-0.7,0.3
	c-0.8,0.4-1.2,0.6-1.2,0.6L268.7,270.9z"/>
<g>
	<circle class="st2" cx="224.2" cy="351.9" r="16.3"/>
	<path class="st2" d="M224.2,335.6c9,0,16.3,7.3,16.3,16.3c0,9-7.3,16.3-16.3,16.3c-9,0-16.3-7.3-16.3-16.3
		C207.9,342.9,215.2,335.6,224.2,335.6 M224.2,331.6c-11.2,0-20.3,9.1-20.3,20.3c0,11.2,9.1,20.3,20.3,20.3
		c11.2,0,20.3-9.1,20.3-20.3C244.5,340.7,235.4,331.6,224.2,331.6L224.2,331.6z"/>
</g>
<g>
	
		<ellipse transform="matrix(0.7071 -0.7071 0.7071 0.7071 -229.6834 323.3447)" class="st2" cx="275.5" cy="438.9" rx="16.3" ry="16.3"/>
	<path class="st2" d="M275.5,422.7c4.2,0,8.3,1.6,11.5,4.8c6.4,6.4,6.4,16.7,0,23c-3.2,3.2-7.3,4.8-11.5,4.8
		c-4.2,0-8.3-1.6-11.5-4.8c-6.4-6.4-6.4-16.7,0-23C267.1,424.2,271.3,422.7,275.5,422.7 M275.5,418.6c-5.4,0-10.5,2.1-14.4,5.9
		c-7.9,7.9-7.9,20.8,0,28.7c3.8,3.8,8.9,6,14.4,6s10.5-2.1,14.4-6c7.9-7.9,7.9-20.8,0-28.7C286,420.7,280.9,418.6,275.5,418.6
		L275.5,418.6z"/>
</g>
<g>
	
		<ellipse transform="matrix(0.7071 -0.7071 0.7071 0.7071 -105.6569 273.6021)" class="st2" cx="277.4" cy="264.3" rx="16.3" ry="16.3"/>
	<path class="st2" d="M277.4,248.1c4.2,0,8.3,1.6,11.5,4.8c6.4,6.4,6.4,16.7,0,23c-3.2,3.2-7.3,4.8-11.5,4.8
		c-4.2,0-8.3-1.6-11.5-4.8c-6.4-6.4-6.4-16.7,0-23C269.1,249.6,273.3,248.1,277.4,248.1 M277.4,244c-5.4,0-10.5,2.1-14.4,6
		c-7.9,7.9-7.9,20.8,0,28.7c3.8,3.8,8.9,6,14.4,6c5.4,0,10.5-2.1,14.4-6c7.9-7.9,7.9-20.8,0-28.7C288,246.1,282.9,244,277.4,244
		L277.4,244z"/>
</g>
<g>
	<circle class="st2" cx="424.9" cy="352.1" r="16.3"/>
	<path class="st2" d="M424.9,335.9c9,0,16.3,7.3,16.3,16.3c0,9-7.3,16.3-16.3,16.3c-9,0-16.3-7.3-16.3-16.3
		C408.6,343.1,415.9,335.9,424.9,335.9 M424.9,331.8c-11.2,0-20.3,9.1-20.3,20.3c0,11.2,9.1,20.3,20.3,20.3
		c11.2,0,20.3-9.1,20.3-20.3C445.2,340.9,436.1,331.8,424.9,331.8L424.9,331.8z"/>
</g>
<g>
	
		<ellipse transform="matrix(0.7071 -0.7072 0.7072 0.7071 -201.1371 392.8174)" class="st2" cx="373.6" cy="439.2" rx="16.3" ry="16.3"/>
	<path class="st2" d="M373.6,422.9c4.2,0,8.3,1.6,11.5,4.8c6.4,6.4,6.4,16.7,0,23c-3.2,3.2-7.3,4.8-11.5,4.8
		c-4.2,0-8.3-1.6-11.5-4.8c-6.4-6.4-6.4-16.7,0-23C365.2,424.5,369.4,422.9,373.6,422.9 M373.6,418.9c-5.4,0-10.5,2.1-14.4,6
		c-7.9,7.9-7.9,20.8,0,28.7c3.8,3.8,8.9,6,14.4,6c5.4,0,10.5-2.1,14.4-6c3.8-3.8,6-8.9,6-14.4c0-5.4-2.1-10.5-6-14.4
		C384.1,421,379,418.9,373.6,418.9L373.6,418.9z"/>
</g>
<g>
	
		<ellipse transform="matrix(0.7071 -0.7071 0.7071 0.7071 -78.2522 340.2587)" class="st2" cx="371.6" cy="264.6" rx="16.3" ry="16.3"/>
	<path class="st2" d="M371.6,248.3c4.2,0,8.3,1.6,11.5,4.8c6.4,6.4,6.4,16.7,0,23c-3.2,3.2-7.3,4.8-11.5,4.8
		c-4.2,0-8.3-1.6-11.5-4.8c-6.4-6.4-6.4-16.7,0-23C363.3,249.9,367.4,248.3,371.6,248.3 M371.6,244.3c-5.4,0-10.5,2.1-14.4,6
		c-3.8,3.8-6,8.9-6,14.4c0,5.4,2.1,10.5,6,14.4c3.8,3.8,8.9,6,14.4,6s10.5-2.1,14.4-6c3.8-3.8,6-8.9,6-14.4c0-5.4-2.1-10.5-6-14.4
		C382.1,246.4,377,244.3,371.6,244.3L371.6,244.3z"/>
</g>
</svg>
